[{"id":1,"first_name":"Kev","last_name":"Whyman","email":"kwhyman0@booking.com"},
{"id":2,"first_name":"Florida","last_name":"Brownsett","email":"fbrownsett1@symantec.com"},
{"id":3,"first_name":"Kacy","last_name":"Legan","email":"klegan2@patch.com"},
{"id":4,"first_name":"Sidonnie","last_name":"Doret","email":"sdoret3@npr.org"},
{"id":5,"first_name":"Erasmus","last_name":"Lawley","email":"elawley4@posterous.com"},
{"id":6,"first_name":"Timmie","last_name":"Moxley","email":"tmoxley5@free.fr"},
{"id":7,"first_name":"Thorny","last_name":"Jehaes","email":"tjehaes6@phpbb.com"},
{"id":8,"first_name":"Adena","last_name":"Jubert","email":"ajubert7@alibaba.com"},
{"id":9,"first_name":"Clary","last_name":"Berr","email":"cberr8@4shared.com"},
{"id":10,"first_name":"Jephthah","last_name":"Clemett","email":"jclemett9@networksolutions.com"},
{"id":11,"first_name":"Maybelle","last_name":"Statter","email":"mstattera@techcrunch.com"},
{"id":12,"first_name":"Rose","last_name":"Syratt","email":"rsyrattb@nifty.com"},
{"id":13,"first_name":"Buffy","last_name":"Miguet","email":"bmiguetc@constantcontact.com"},
{"id":14,"first_name":"Carolee","last_name":"Samwyse","email":"csamwysed@ebay.com"},
{"id":15,"first_name":"Salome","last_name":"Dalloway","email":"sdallowaye@histats.com"},
{"id":16,"first_name":"Vinny","last_name":"Bradfield","email":"vbradfieldf@storify.com"},
{"id":17,"first_name":"Umberto","last_name":"Loughman","email":"uloughmang@comcast.net"},
{"id":18,"first_name":"Farrah","last_name":"Woolf","email":"fwoolfh@mapy.cz"},
{"id":19,"first_name":"Blondy","last_name":"Wewell","email":"bwewelli@sciencedirect.com"},
{"id":20,"first_name":"Bronnie","last_name":"Beney","email":"bbeneyj@ibm.com"},
{"id":21,"first_name":"Saxe","last_name":"Macoun","email":"smacounk@163.com"},
{"id":22,"first_name":"Skip","last_name":"Grassick","email":"sgrassickl@va.gov"},
{"id":23,"first_name":"Essa","last_name":"Toward","email":"etowardm@google.com.br"},
{"id":24,"first_name":"Ade","last_name":"Stamp","email":"astampn@netscape.com"},
{"id":25,"first_name":"Mareah","last_name":"Wannop","email":"mwannopo@bizjournals.com"},
{"id":26,"first_name":"Marietta","last_name":"Bartlomiej","email":"mbartlomiejp@yale.edu"},
{"id":27,"first_name":"Osborne","last_name":"Kift","email":"okiftq@mediafire.com"},
{"id":28,"first_name":"Alleyn","last_name":"Lindermann","email":"alindermannr@yandex.ru"},
{"id":29,"first_name":"Cristie","last_name":"Tulleth","email":"ctulleths@oaic.gov.au"},
{"id":30,"first_name":"Cordy","last_name":"Melesk","email":"cmeleskt@studiopress.com"}]